[{"user_id":7,"IBAN":"AD05 8417 4106 GRXS TB9W VQ1W","idCuenta":88,"balance":45892.12},
{"user_id":16,"IBAN":"AD24 8462 7020 KU90 NDVV UO6J","idCuenta":7,"balance":53706.84},
{"user_id":24,"IBAN":"AD96 3814 5524 2AXR KSTX CB6R","idCuenta":81,"balance":60982.55},
{"user_id":10,"IBAN":"AE05 9925 7445 0907 0679 677","idCuenta":8,"balance":14899.84},
{"user_id":7,"IBAN":"AE39 5517 9718 3512 0429 363","idCuenta":6,"balance":22304.71},
{"user_id":16,"IBAN":"AL63 3876 6292 T0PZ QM5P AQK4 SWDF","idCuenta":52,"balance":13249.06},
{"user_id":30,"IBAN":"AL89 7551 0767 LEDR WFW8 J5AP NEM5","idCuenta":23,"balance":66112.94},
{"user_id":28,"IBAN":"AZ33 GYNO QNEW LZJA VK8K BAWQ JTBD","idCuenta":13,"balance":71085.61},
{"user_id":21,"IBAN":"BA16 7399 2409 9815 4467","idCuenta":57,"balance":24600.18},
{"user_id":12,"IBAN":"BE43 1878 5039 4489","idCuenta":95,"balance":95355.08},
{"user_id":17,"IBAN":"BE72 7017 2601 8320","idCuenta":53,"balance":61829.36},
{"user_id":22,"IBAN":"BG78 OUAQ 4165 26RH DCN9 8I","idCuenta":17,"balance":41501.94},
{"user_id":7,"IBAN":"BR87 6871 7681 1806 6357 0338 430U 3","idCuenta":55,"balance":29686.46},
{"user_id":17,"IBAN":"CH13 7590 1DIY RYQN QVAE R","idCuenta":35,"balance":19314.91},
{"user_id":16,"IBAN":"CR51 3227 8833 7374 0219 9","idCuenta":64,"balance":36409.05},
{"user_id":17,"IBAN":"CY12 3384 9159 WTYL FOWP SD8G FNMC","idCuenta":11,"balance":51405.29},
{"user_id":15,"IBAN":"CZ41 7042 5291 9672 5660 4645","idCuenta":90,"balance":5616.16},
{"user_id":2,"IBAN":"DE09 3347 5594 5977 8584 21","idCuenta":28,"balance":29835.75},
{"user_id":19,"IBAN":"DE14 7128 5140 8550 0516 05","idCuenta":18,"balance":79865.84},
{"user_id":22,"IBAN":"DK39 3720 3981 5124 33","idCuenta":42,"balance":89951.61},
{"user_id":24,"IBAN":"DK59 8445 9980 7482 02","idCuenta":41,"balance":60667.27},
{"user_id":25,"IBAN":"DK94 7023 1528 0976 67","idCuenta":25,"balance":50562.24},
{"user_id":3,"IBAN":"DO38 J8ML 2170 0263 9552 8413 2708","idCuenta":99,"balance":18779.38},
{"user_id":24,"IBAN":"DO39 EXSC 7003 0606 1629 7686 4626","idCuenta":48,"balance":76790.98},
{"user_id":26,"IBAN":"EE28 9038 6017 4681 2932","idCuenta":44,"balance":89703.59},
{"user_id":15,"IBAN":"EE64 8648 0770 5770 2042","idCuenta":14,"balance":59877.68},
{"user_id":29,"IBAN":"EE77 1027 1227 6206 6006","idCuenta":36,"balance":45378.15},
{"user_id":6,"IBAN":"EE88 7262 6614 2936 0770","idCuenta":12,"balance":16684.0},
{"user_id":3,"IBAN":"ES50 7222 6825 3395 5384 2350","idCuenta":22,"balance":73917.37},
{"user_id":13,"IBAN":"FI30 5011 0635 2319 72","idCuenta":67,"balance":34667.6},
{"user_id":2,"IBAN":"FI96 4403 1139 5069 28","idCuenta":10,"balance":59192.4},
{"user_id":9,"IBAN":"FR02 1771 6332 61FD WLVQ 5ZJF W06","idCuenta":84,"balance":2115.54},
{"user_id":5,"IBAN":"FR02 4294 4366 81TS WBL5 7E8X N82","idCuenta":75,"balance":93397.94},
{"user_id":13,"IBAN":"FR03 1959 7466 53S5 RTNM SSWQ X40","idCuenta":31,"balance":81574.32},
{"user_id":5,"IBAN":"FR13 9512 9904 035C BTQZ VOYT C67","idCuenta":68,"balance":91179.88},
{"user_id":17,"IBAN":"FR17 3916 6734 10GB VHBM EMNT L31","idCuenta":29,"balance":98569.19},
{"user_id":22,"IBAN":"FR17 9099 4071 323Z TNIG Y5FT S06","idCuenta":94,"balance":14889.82},
{"user_id":19,"IBAN":"FR21 1083 7816 58FR VVSN QNX2 N99","idCuenta":43,"balance":29676.21},
{"user_id":26,"IBAN":"FR22 7082 7423 83TF 611R PLHG A32","idCuenta":92,"balance":43039.14},
{"user_id":8,"IBAN":"FR29 5784 8504 69FV NRLU 9MMP Q63","idCuenta":86,"balance":17102.95},
{"user_id":17,"IBAN":"FR39 4227 9400 35ZG FKHA LXNU X18","idCuenta":83,"balance":31151.51},
{"user_id":8,"IBAN":"FR39 9434 6616 81WK 9GDL 3EX1 I29","idCuenta":61,"balance":52534.49},
{"user_id":9,"IBAN":"FR49 9664 7262 726M T726 AYHH 055","idCuenta":100,"balance":98937.32},
{"user_id":14,"IBAN":"FR52 6153 3186 326J NWIC QOQJ A36","idCuenta":74,"balance":43116.67},
{"user_id":26,"IBAN":"FR86 7979 6839 35QA U3XY LOIX O26","idCuenta":40,"balance":24598.59},
{"user_id":4,"IBAN":"FR98 5307 6286 49VH TTCR JTFF 360","idCuenta":38,"balance":42964.71},
{"user_id":4,"IBAN":"GB71 IMAU 9395 0717 2613 32","idCuenta":78,"balance":50478.79},
{"user_id":20,"IBAN":"GE31 AU34 2154 7597 2343 77","idCuenta":82,"balance":4021.47},
{"user_id":24,"IBAN":"GI42 PNUZ SGZJ PDMF 1AE2 OYH","idCuenta":45,"balance":21439.08},
{"user_id":3,"IBAN":"GL10 2421 7987 7512 41","idCuenta":50,"balance":68920.95},
{"user_id":10,"IBAN":"GL31 1306 4121 6808 63","idCuenta":63,"balance":93161.57},
{"user_id":30,"IBAN":"GL81 2438 4568 0059 82","idCuenta":59,"balance":2009.29},
{"user_id":28,"IBAN":"GL84 3859 7584 3685 79","idCuenta":26,"balance":64742.91},
{"user_id":7,"IBAN":"GR13 7037 6716 X7SS T7AD ODQM IGE","idCuenta":80,"balance":93833.73},
{"user_id":27,"IBAN":"GR76 8587 507W FRTA UIZA 1AQU QFM","idCuenta":30,"balance":83411.61},
{"user_id":3,"IBAN":"GT57 VIWI IHXD YKRQ Z5CX J3N7 7GK2","idCuenta":91,"balance":96595.59},
{"user_id":17,"IBAN":"HR46 6511 9562 8622 9253 3","idCuenta":93,"balance":31521.74},
{"user_id":18,"IBAN":"IE02 BGUH 8200 1133 7934 50","idCuenta":87,"balance":18870.42},
{"user_id":26,"IBAN":"IE42 NSBH 2286 2256 3654 45","idCuenta":65,"balance":30316.35},
{"user_id":14,"IBAN":"IL47 2266 0403 3389 9873 087","idCuenta":5,"balance":11983.12},
{"user_id":11,"IBAN":"IL50 7375 6388 1937 7325 424","idCuenta":39,"balance":87629.86},
{"user_id":4,"IBAN":"IS45 5491 7604 1675 3452 0693 83","idCuenta":66,"balance":23182.18},
{"user_id":16,"IBAN":"IT19 D093 2338 3659 P8CN UBR5 VJY","idCuenta":34,"balance":69525.84},
{"user_id":20,"IBAN":"IT28 T209 2934 721N Z9TT TOAF B9B","idCuenta":76,"balance":40242.24},
{"user_id":9,"IBAN":"IT35 C724 7414 803L 5VIX 45FJ J4X","idCuenta":21,"balance":10441.09},
{"user_id":21,"IBAN":"IT56 I900 0135 5608 TAGS FPPX SGI","idCuenta":89,"balance":81424.86},
{"user_id":8,"IBAN":"IT67 M733 7792 536M ENSY LKQ0 WAI","idCuenta":79,"balance":54800.68},
{"user_id":8,"IBAN":"KW23 PFIZ GS3L XHRT ESNM TRIX YJBL QN","idCuenta":49,"balance":34146.63},
{"user_id":28,"IBAN":"KW50 HOQA IVOV NQNR VLFK FHTV 1NZD PD","idCuenta":3,"balance":73370.66},
{"user_id":6,"IBAN":"KW61 KYYZ PWMZ YZ07 FWF6 GFUB WWSU OS","idCuenta":4,"balance":3959.76},
{"user_id":12,"IBAN":"KZ84 4281 MLJO LACA BXUV","idCuenta":62,"balance":50405.83},
{"user_id":11,"IBAN":"KZ96 660Q HMVD KMMJ NWSR","idCuenta":72,"balance":16140.27},
{"user_id":16,"IBAN":"LB38 6057 DSDZ RCNY QTIB AB5I ULKF","idCuenta":9,"balance":31674.92},
{"user_id":19,"IBAN":"LT11 2810 8995 0517 4580","idCuenta":47,"balance":28570.08},
{"user_id":7,"IBAN":"MD13 OJHV CTWA 6H4F QUN7 LAXC","idCuenta":97,"balance":4552.59},
{"user_id":7,"IBAN":"MD69 TF0Q 2ESZ 6RRM 1NS5 DCNB","idCuenta":58,"balance":62243.26},
{"user_id":15,"IBAN":"ME20 6599 7392 8414 6019 97","idCuenta":69,"balance":70174.01},
{"user_id":14,"IBAN":"ME80 9513 4109 6954 4168 72","idCuenta":27,"balance":83179.81},
{"user_id":21,"IBAN":"ME86 7596 6893 9043 1793 67","idCuenta":1,"balance":65793.09},
{"user_id":12,"IBAN":"MK38 954R SK4D ZMSQ K90","idCuenta":2,"balance":42349.1},
{"user_id":12,"IBAN":"MK93 500R 32S2 OAIB E68","idCuenta":16,"balance":77754.4},
{"user_id":19,"IBAN":"MR03 6826 3488 5010 4731 8126 795","idCuenta":60,"balance":55082.44},
{"user_id":21,"IBAN":"MR23 5712 9123 6311 1597 4220 294","idCuenta":96,"balance":59607.62},
{"user_id":26,"IBAN":"MT38 IZJT 5991 9SD4 A5BZ BZFJ UIND IUT","idCuenta":32,"balance":85641.77},
{"user_id":16,"IBAN":"NO22 6120 5064 979","idCuenta":24,"balance":69022.54},
{"user_id":7,"IBAN":"NO44 6569 5265 393","idCuenta":37,"balance":58998.07},
{"user_id":27,"IBAN":"NO97 8472 0533 457","idCuenta":85,"balance":32115.0},
{"user_id":9,"IBAN":"PK69 KTIP 5ANX Y5VP AD7L KAO8","idCuenta":70,"balance":99160.14},
{"user_id":24,"IBAN":"PS45 MTCQ FVYC 0OTE MVYU OKBF XA3U O","idCuenta":15,"balance":99699.79},
{"user_id":24,"IBAN":"PS89 HXLE VM0S XBCY 0RAZ POET KNJF D","idCuenta":20,"balance":38266.78},
{"user_id":9,"IBAN":"PT08 5183 8285 9198 6921 8299 1","idCuenta":73,"balance":32859.68},
{"user_id":15,"IBAN":"PT40 8002 3809 6685 6872 6729 5","idCuenta":51,"balance":36473.3},
{"user_id":19,"IBAN":"PT69 7992 5942 4080 5991 7022 5","idCuenta":33,"balance":93682.76},
{"user_id":30,"IBAN":"RO06 IGDV LQSJ B406 YJIL RWNY","idCuenta":19,"balance":14666.22},
{"user_id":12,"IBAN":"SE78 4796 3910 3961 3491 3653","idCuenta":54,"balance":41091.31},
{"user_id":5,"IBAN":"SE92 8861 6144 8082 9424 3932","idCuenta":56,"balance":27077.87},
{"user_id":17,"IBAN":"TN72 7222 6467 3750 8496 7976","idCuenta":46,"balance":87899.14},
{"user_id":19,"IBAN":"TR04 2248 21AW 3QR6 6AOQ ZSRO HF","idCuenta":98,"balance":94974.81},
{"user_id":7,"IBAN":"TR55 4504 3NYE OVTA MNDG UMGL N9","idCuenta":71,"balance":32541.0},
{"user_id":27,"IBAN":"TR56 8897 7M2I AQND ZJ0C DXWJ 0Y","idCuenta":77,"balance":25915.29}]
